<?xml version="1.0" encoding="UTF-8" standalone="no"?>
<!-- Created with Inkscape (http://www.inkscape.org/) -->

<svg
   xmlns:dc="http://purl.org/dc/elements/1.1/"
   xmlns:cc="http://creativecommons.org/ns#"
   xmlns:rdf="http://www.w3.org/1999/02/22-rdf-syntax-ns#"
   xmlns:svg="http://www.w3.org/2000/svg"
   xmlns="http://www.w3.org/2000/svg"
   xmlns:sodipodi="http://sodipodi.sourceforge.net/DTD/sodipodi-0.dtd"
   xmlns:inkscape="http://www.inkscape.org/namespaces/inkscape"
   width="210mm"
   height="297mm"
   viewBox="0 0 744.09448819 1052.3622047"
   id="svg5296"
   version="1.1"
   inkscape:version="0.91 r13725"
   sodipodi:docname="totoro.svg">
  <defs
     id="defs5298" />
  <sodipodi:namedview
     id="base"
     pagecolor="#ffffff"
     bordercolor="#666666"
     borderopacity="1.0"
     inkscape:pageopacity="0.0"
     inkscape:pageshadow="2"
     inkscape:zoom="0.7"
     inkscape:cx="203.55848"
     inkscape:cy="607.17424"
     inkscape:document-units="px"
     inkscape:current-layer="layer1"
     showgrid="false"
     inkscape:window-width="1280"
     inkscape:window-height="699"
     inkscape:window-x="0"
     inkscape:window-y="1"
     inkscape:window-maximized="1" />
  <metadata
     id="metadata5301">
    <rdf:RDF>
      <cc:Work
         rdf:about="">
        <dc:format>image/svg+xml</dc:format>
        <dc:type
           rdf:resource="http://purl.org/dc/dcmitype/StillImage" />
        <dc:title />
      </cc:Work>
    </rdf:RDF>
  </metadata>
  <g
     inkscape:label="Layer 1"
     inkscape:groupmode="layer"
     id="layer1">
    <path
       style="opacity:1;fill:#676659;fill-opacity:1;fill-rule:evenodd;stroke:none;stroke-width:1px;stroke-linecap:butt;stroke-linejoin:miter;stroke-opacity:1"
       d="m 255,510.93363 c 0,0 13.57143,-25 17.14286,-28.57143 3.57143,-3.57142 9.37237,-37.39539 12.22951,-50.25254 2.85715,-12.85714 17.77049,-53.31888 23.48477,-60.46174 5.71429,-7.14286 6.80538,-7.70468 6.80538,-7.70468 0,0 -8.5863,-5.55583 -14.39468,-14.64721 -5.80837,-9.09137 -13.63705,-22.72843 -13.13198,-25.75889 0.50508,-3.03046 1.01015,-5.80837 13.63706,-2.0203 12.62691,3.78807 21.2132,9.59645 25.50635,14.39467 4.29315,4.79823 7.82868,10.6066 7.82868,10.6066 0,0 13.38453,-9.84899 28.78936,-10.85914 15.37387,-1.00812 17.42513,0.75762 26.01142,3.53554 6.24718,2.02115 6.31345,2.52538 6.31345,2.52538 0,0 3.70639,-10.42911 15.13496,-17.92912 11.42857,-7.5 18.57143,-12.14285 22.5,-11.78571 3.92857,0.35714 13.21429,-1.07143 1.07143,20.71429 -12.14286,21.78571 -15.35714,24.28571 -15.35714,24.28571 0,0 17.85714,19.64286 22.5,27.85714 4.64286,8.21429 9.28571,8.92858 20.35714,16.78572 11.07143,7.85714 40.35715,37.5 57.14286,62.14286 16.78571,24.64285 32.14286,47.85714 28.92857,57.14285 -3.21428,9.28572 -18.21428,11.07143 -43.21428,-2.5 -25,-13.57143 -24.64286,-15.71428 -24.64286,-15.71428 0,0 2.85714,26.78571 1.78571,36.07143 -1.07143,9.28571 -3.92857,40.35714 -3.92857,40.35714 l -211.07143,-1.42857 -5,-20 c 0,0 -2.5,3.57143 -8.57143,2.5 -6.07143,-1.07143 -13.92857,0.71428 -11.42857,-12.5 C 243.92857,534.50506 255,510.93363 255,510.93363 Z"
       id="path5925"
       inkscape:connector-curvature="0"
       sodipodi:nodetypes="cssscsssscsscssscssssscscccssc"
       inkscape:export-xdpi="560.65997"
       inkscape:export-ydpi="560.65997" />
    <ellipse
       style="opacity:1;fill:#f87586;fill-opacity:1;stroke:none;stroke-opacity:1"
       id="path5927"
       cx="412.77356"
       cy="399.55112"
       rx="9.975256"
       ry="6.5659914"
       inkscape:export-xdpi="560.65997"
       inkscape:export-ydpi="560.65997" />
    <ellipse
       ry="6.5659914"
       rx="9.975256"
       cy="404.34933"
       cx="318.82938"
       id="ellipse5929"
       style="opacity:1;fill:#f87586;fill-opacity:1;stroke:none;stroke-opacity:1"
       inkscape:export-xdpi="560.65997"
       inkscape:export-ydpi="560.65997" />
    <path
       style="fill:#424242;fill-rule:evenodd;stroke:none;stroke-width:1px;stroke-linecap:butt;stroke-linejoin:miter;stroke-opacity:1;fill-opacity:1"
       d="m 426.53691,393.49021 c 0,0 9.59645,-6.06092 15.15229,-10.60661 5.55584,-4.54568 24.74874,-21.71828 24.74874,-21.71828 0,0 -13.38452,15.40483 -18.68782,19.44544 -5.3033,4.04061 -21.21321,12.87945 -21.21321,12.87945 z"
       id="path5931"
       inkscape:connector-curvature="0"
       inkscape:export-xdpi="560.65997"
       inkscape:export-ydpi="560.65997" />
    <path
       inkscape:connector-curvature="0"
       id="path5933"
       d="m 428.00167,396.3423 c 0,0 10.83814,-3.37065 17.38118,-6.3235 6.54304,-2.95283 29.52655,-14.5728 29.52655,-14.5728 0,0 -16.91551,11.41576 -23.0839,13.94611 -6.16838,2.53031 -23.82383,6.95019 -23.82383,6.95019 z"
       style="fill:#424242;fill-rule:evenodd;stroke:none;stroke-width:1px;stroke-linecap:butt;stroke-linejoin:miter;stroke-opacity:1;fill-opacity:1"
       inkscape:export-xdpi="560.65997"
       inkscape:export-ydpi="560.65997" />
    <path
       style="fill:#424242;fill-rule:evenodd;stroke:none;stroke-width:1px;stroke-linecap:butt;stroke-linejoin:miter;stroke-opacity:1;fill-opacity:1"
       d="m 429.13438,400.00118 c 0,0 11.34123,-0.45068 18.42557,-1.60945 7.08434,-1.15875 32.29218,-6.43421 32.29218,-6.43421 0,0 -19.29375,6.64872 -25.90686,7.49635 -6.61309,0.8476 -24.81089,0.54731 -24.81089,0.54731 z"
       id="path5935"
       inkscape:connector-curvature="0"
       inkscape:export-xdpi="560.65997"
       inkscape:export-ydpi="560.65997" />
    <path
       inkscape:connector-curvature="0"
       id="path5937"
       d="m 306.1766,401.7045 c 0,0 -9.59645,-6.06092 -15.15229,-10.60661 -5.55584,-4.54568 -24.74874,-21.71828 -24.74874,-21.71828 0,0 13.38452,15.40483 18.68782,19.44544 5.3033,4.04061 21.21321,12.87945 21.21321,12.87945 z"
       style="fill:#424242;fill-rule:evenodd;stroke:none;stroke-width:1px;stroke-linecap:butt;stroke-linejoin:miter;stroke-opacity:1;fill-opacity:1"
       inkscape:export-xdpi="560.65997"
       inkscape:export-ydpi="560.65997" />
    <path
       style="fill:#424242;fill-rule:evenodd;stroke:none;stroke-width:1px;stroke-linecap:butt;stroke-linejoin:miter;stroke-opacity:1;fill-opacity:1"
       d="m 304.71184,404.55659 c 0,0 -10.83814,-3.37065 -17.38118,-6.3235 -6.54304,-2.95283 -29.52655,-14.5728 -29.52655,-14.5728 0,0 16.91551,11.41576 23.0839,13.94611 6.16838,2.53031 23.82383,6.95019 23.82383,6.95019 z"
       id="path5939"
       inkscape:connector-curvature="0"
       inkscape:export-xdpi="560.65997"
       inkscape:export-ydpi="560.65997" />
    <path
       inkscape:connector-curvature="0"
       id="path5941"
       d="m 303.57913,408.21547 c 0,0 -11.34123,-0.45068 -18.42557,-1.60945 -7.08434,-1.15875 -32.29218,-6.43421 -32.29218,-6.43421 0,0 19.29375,6.64872 25.90686,7.49635 6.61309,0.8476 24.81089,0.54731 24.81089,0.54731 z"
       style="fill:#424242;fill-rule:evenodd;stroke:none;stroke-width:1px;stroke-linecap:butt;stroke-linejoin:miter;stroke-opacity:1;fill-opacity:1"
       inkscape:export-xdpi="560.65997"
       inkscape:export-ydpi="560.65997" />
    <path
       style="fill:#212121;fill-rule:evenodd;stroke:none;stroke-width:1px;stroke-linecap:butt;stroke-linejoin:miter;stroke-opacity:1;fill-opacity:1"
       d="m 361.76088,408.45309 c 0,-0.37881 -0.63134,-0.94702 1.07329,-2.27284 1.70463,-1.32583 2.90419,-2.14658 4.41942,-1.4521 1.51522,0.69448 2.71478,1.89404 1.13642,2.77792 -1.57837,0.88389 -4.10375,0 -4.86136,0.25254 -0.75762,0.25254 -1.8309,-0.25254 -1.76777,0.69448 z"
       id="path5947"
       inkscape:connector-curvature="0"
       inkscape:export-xdpi="560.65997"
       inkscape:export-ydpi="560.65997" />
    <path
       style="fill:#212121;fill-rule:evenodd;stroke:none;stroke-width:1px;stroke-linecap:butt;stroke-linejoin:miter;stroke-opacity:1;fill-opacity:1"
       d="m 357.15206,391.84871 c 0,0 -1.51523,-1.26269 -0.37881,-2.65165 1.13642,-1.38896 2.90419,-3.15673 5.93465,-3.40927 3.03046,-0.25254 4.67195,-0.56821 6.9448,0.82075 2.27284,1.38896 4.35628,3.34613 3.03046,3.78807 -1.32583,0.44195 -3.0936,0.12627 -4.79823,0.88389 -1.70463,0.75761 -3.4724,2.14657 -3.4724,2.14657 0,0 -1.13642,-1.57836 -3.91434,-1.6415 -2.77792,-0.0631 -3.34613,0.0631 -3.34613,0.0631 z"
       id="path5949"
       inkscape:connector-curvature="0"
       inkscape:export-xdpi="560.65997"
       inkscape:export-ydpi="560.65997" />
    <path
       style="fill:#212121;fill-rule:evenodd;stroke:none;stroke-width:1px;stroke-linecap:butt;stroke-linejoin:miter;stroke-opacity:1;fill-opacity:1"
       d="m 354.81608,385.85093 c 0,0 2.33598,-3.53554 5.93465,-3.91434 3.59867,-0.37881 6.50286,-0.94702 9.47018,0.50507 2.96732,1.4521 3.91434,3.21986 3.91434,3.21986 0,0 -4.73509,-3.21986 -8.9651,-2.90419 -4.23002,0.31568 -5.99778,0.25254 -10.35407,3.0936 z"
       id="path5951"
       inkscape:connector-curvature="0"
       inkscape:export-xdpi="560.65997"
       inkscape:export-ydpi="560.65997" />
    <g
       id="g5963"
       transform="translate(-23.359778,9.3439111)"
       inkscape:export-xdpi="560.65997"
       inkscape:export-ydpi="560.65997">
      <ellipse
         style="opacity:1;fill:#212121;fill-opacity:1;stroke:none;stroke-opacity:1"
         id="ellipse5955"
         cx="423.12766"
         cy="374.36044"
         rx="11.111678"
         ry="9.7858534" />
      <ellipse
         ry="9.0282393"
         rx="10.417198"
         cy="374.61298"
         cx="422.81198"
         id="ellipse5957"
         style="opacity:1;fill:#fafafa;fill-opacity:1;stroke:none;stroke-opacity:1" />
      <ellipse
         style="opacity:1;fill:#212121;fill-opacity:1;stroke:none;stroke-opacity:1"
         id="ellipse5959"
         cx="422.05438"
         cy="374.9455"
         rx="6.1240497"
         ry="5.9178109" />
      <ellipse
         ry="1.7175635"
         rx="1.7774215"
         cy="372.70602"
         cx="424.52628"
         id="ellipse5961"
         style="opacity:1;fill:#fafafa;fill-opacity:1;stroke:none;stroke-opacity:1" />
    </g>
    <g
       transform="matrix(-1,0,0,1,751.93231,13.637059)"
       id="g5969"
       inkscape:export-xdpi="560.65997"
       inkscape:export-ydpi="560.65997">
      <ellipse
         ry="9.7858534"
         rx="11.111678"
         cy="374.36044"
         cx="423.12766"
         id="ellipse5971"
         style="opacity:1;fill:#212121;fill-opacity:1;stroke:none;stroke-opacity:1" />
      <ellipse
         style="opacity:1;fill:#fafafa;fill-opacity:1;stroke:none;stroke-opacity:1"
         id="ellipse5973"
         cx="422.81198"
         cy="374.61298"
         rx="10.417198"
         ry="9.0282393" />
      <ellipse
         ry="5.9178109"
         rx="6.1240497"
         cy="374.9455"
         cx="422.05438"
         id="ellipse5975"
         style="opacity:1;fill:#212121;fill-opacity:1;stroke:none;stroke-opacity:1" />
      <ellipse
         style="opacity:1;fill:#fafafa;fill-opacity:1;stroke:none;stroke-opacity:1"
         id="ellipse5977"
         cx="424.52628"
         cy="372.70602"
         rx="1.7774215"
         ry="1.7175635" />
    </g>
    <ellipse
       style="opacity:1;fill:#f8f8ca;fill-opacity:1;stroke:none;stroke-opacity:1"
       id="path5979"
       cx="365.71429"
       cy="528.79077"
       rx="97.14286"
       ry="107.14286"
       inkscape:export-xdpi="560.65997"
       inkscape:export-ydpi="560.65997" />
    <path
       style="fill:#59594a;fill-opacity:1;fill-rule:evenodd;stroke:none;stroke-width:1px;stroke-linecap:butt;stroke-linejoin:miter;stroke-opacity:1"
       d="m 391.49675,451.92305 c 0,0 1.13642,-3.53553 7.32361,-5.68211 6.18718,-2.14657 9.59645,-2.65165 11.36421,-2.14657 1.76777,0.50508 4.41942,4.41942 6.06092,7.82868 1.6415,3.40927 4.04061,9.21764 2.77792,11.23795 -1.26269,2.0203 -3.283,3.40926 -6.18719,0.12627 -2.90419,-3.283 -3.53553,-6.81853 -5.93464,-7.57615 -2.39912,-0.75761 -6.31346,1.38896 -9.47018,1.13642 -3.15673,-0.25253 -5.17703,-1.26269 -5.68211,-3.15672 -0.50508,-1.89404 -0.25254,-1.76777 -0.25254,-1.76777 z"
       id="path5981"
       inkscape:connector-curvature="0"
       inkscape:export-xdpi="560.65997"
       inkscape:export-ydpi="560.65997" />
    <path
       inkscape:connector-curvature="0"
       id="path5983"
       d="m 347.53753,452.9093 c 0,0 -0.7836,-3.63007 3.50138,-8.58267 4.28497,-4.95256 6.98494,-7.09461 8.76841,-7.54108 1.78347,-0.44651 6.03704,1.61763 9.16325,3.74938 3.12622,2.13176 8.10809,5.96241 8.02472,8.34338 -0.0834,2.38098 -1.13853,4.59402 -5.29513,3.20295 -4.15659,-1.39106 -6.47112,-4.13725 -8.92762,-3.59382 -2.4565,0.54346 -4.77314,4.35961 -7.63321,5.71926 -2.86007,1.35967 -5.11478,1.495 -6.49921,0.10726 -1.38443,-1.38774 -1.10259,-1.40466 -1.10259,-1.40466 z"
       style="fill:#59594a;fill-opacity:1;fill-rule:evenodd;stroke:none;stroke-width:1px;stroke-linecap:butt;stroke-linejoin:miter;stroke-opacity:1"
       inkscape:export-xdpi="560.65997"
       inkscape:export-ydpi="560.65997" />
    <path
       style="fill:#59594a;fill-opacity:1;fill-rule:evenodd;stroke:none;stroke-width:1px;stroke-linecap:butt;stroke-linejoin:miter;stroke-opacity:1"
       d="m 305.53884,465.76485 c 0,0 -1.69643,-3.30356 1.16072,-9.19644 2.85714,-5.89284 4.91071,-8.66071 6.51786,-9.55356 1.60713,-0.89289 6.25,10e-6 9.82143,1.25 3.57143,1.25 9.375,3.66072 9.91071,5.98214 0.53568,2.32143 0.0893,4.73215 -4.28572,4.46429 -4.37499,-0.26786 -7.32142,-2.32143 -9.55357,-1.16073 -2.23214,1.16073 -3.48215,5.44644 -5.89286,7.5 -2.41071,2.05359 -4.55356,2.76787 -6.24999,1.78573 -1.69643,-0.98214 -1.42858,-1.07143 -1.42858,-1.07143 z"
       id="path5985"
       inkscape:connector-curvature="0"
       inkscape:export-xdpi="560.65997"
       inkscape:export-ydpi="560.65997" />
    <path
       inkscape:connector-curvature="0"
       id="path5987"
       d="m 290.53884,494.33628 c 0,0 -1.69643,-3.30356 1.16072,-9.19644 2.85714,-5.89284 4.91071,-8.66071 6.51786,-9.55356 1.60713,-0.89289 6.25,1e-5 9.82143,1.25 3.57143,1.25 9.375,3.66072 9.91071,5.98214 0.53568,2.32143 0.0893,4.73215 -4.28572,4.46429 -4.37499,-0.26786 -7.32142,-2.32143 -9.55357,-1.16073 -2.23214,1.16073 -3.48215,5.44644 -5.89286,7.5 -2.41071,2.05359 -4.55356,2.76787 -6.24999,1.78573 -1.69643,-0.98214 -1.42858,-1.07143 -1.42858,-1.07143 z"
       style="fill:#59594a;fill-opacity:1;fill-rule:evenodd;stroke:none;stroke-width:1px;stroke-linecap:butt;stroke-linejoin:miter;stroke-opacity:1"
       inkscape:export-xdpi="560.65997"
       inkscape:export-ydpi="560.65997" />
    <path
       style="fill:#59594a;fill-opacity:1;fill-rule:evenodd;stroke:none;stroke-width:1px;stroke-linecap:butt;stroke-linejoin:miter;stroke-opacity:1"
       d="m 330.86507,477.67337 c 0,0 -0.7836,-3.63006 3.50139,-8.58266 4.28496,-4.95257 6.98494,-7.09462 8.76841,-7.54109 1.78347,-0.44651 6.03703,1.61763 9.16325,3.74938 3.12621,2.13176 8.10809,5.96242 8.02472,8.34339 -0.0834,2.38097 -1.13852,4.59401 -5.29513,3.20294 -4.15659,-1.39106 -6.47112,-4.13725 -8.92762,-3.59382 -2.4565,0.54346 -4.77314,4.35961 -7.63321,5.71926 -2.86008,1.35968 -5.11478,1.49501 -6.49921,0.10726 -1.38443,-1.38774 -1.1026,-1.40466 -1.1026,-1.40466 z"
       id="path5989"
       inkscape:connector-curvature="0"
       inkscape:export-xdpi="560.65997"
       inkscape:export-ydpi="560.65997" />
    <path
       inkscape:connector-curvature="0"
       id="path5991"
       d="m 368.40256,474.82991 c 0,0 0.18264,-3.70919 5.60345,-7.38399 5.42076,-3.67478 8.58314,-5.04504 10.42141,-5.0147 1.83825,0.0303 5.41264,3.12501 7.8806,5.99325 2.46794,2.86824 6.28862,7.85778 5.59185,10.13604 -0.6968,2.27826 -2.28874,4.14281 -5.94368,1.72333 -3.65493,-2.41947 -5.17982,-5.67113 -7.69327,-5.78201 -2.51346,-0.11084 -5.73885,2.97568 -8.85337,3.54877 -3.11454,0.5731 -5.32744,0.12026 -6.30552,-1.57852 -0.97808,-1.69878 -0.70147,-1.64217 -0.70147,-1.64217 z"
       style="fill:#59594a;fill-opacity:1;fill-rule:evenodd;stroke:none;stroke-width:1px;stroke-linecap:butt;stroke-linejoin:miter;stroke-opacity:1"
       inkscape:export-xdpi="560.65997"
       inkscape:export-ydpi="560.65997" />
    <path
       style="fill:#59594a;fill-opacity:1;fill-rule:evenodd;stroke:none;stroke-width:1px;stroke-linecap:butt;stroke-linejoin:miter;stroke-opacity:1"
       d="m 413.40256,486.97276 c 0,0 0.18264,-3.70919 5.60345,-7.38399 5.42076,-3.67478 8.58314,-5.04504 10.42141,-5.0147 1.83825,0.0303 5.41264,3.12501 7.8806,5.99325 2.46794,2.86824 6.28862,7.85778 5.59185,10.13604 -0.6968,2.27826 -2.28874,4.14281 -5.94368,1.72333 -3.65493,-2.41947 -5.17982,-5.67113 -7.69327,-5.78201 -2.51346,-0.11084 -5.73885,2.97568 -8.85337,3.54877 -3.11454,0.5731 -5.32744,0.12026 -6.30552,-1.57852 -0.97808,-1.69878 -0.70147,-1.64217 -0.70147,-1.64217 z"
       id="path5993"
       inkscape:connector-curvature="0"
       inkscape:export-xdpi="560.65997"
       inkscape:export-ydpi="560.65997" />
    <rect
       style="opacity:1;fill:#424242;fill-opacity:1;stroke:none;stroke-opacity:1"
       id="rect5995"
       width="845"
       height="174.28572"
       x="-207.14285"
       y="534.50507"
       ry="0.17677701"
       inkscape:export-xdpi="560.65997"
       inkscape:export-ydpi="560.65997" />
    <path
       style="fill:#000000;fill-rule:evenodd;stroke:none;stroke-width:1px;stroke-linecap:butt;stroke-linejoin:miter;stroke-opacity:1;fill-opacity:1"
       d="m 394.82143,375.1747 c 0,0 1.25,-2.41071 2.76786,-3.79464 1.51785,-1.38393 1.51785,-1.38393 1.51785,-1.38393 0,0 -1.78571,1.83036 -2.1875,3.125 -0.40178,1.29464 -0.66964,1.83036 -0.66964,1.83036 0,0 1.69643,-2.99107 4.19643,-3.79464 2.5,-0.80358 2.5,-0.80358 2.5,-0.80358 0,0 -2.85714,1.20536 -3.61607,2.36608 -0.75893,1.16071 -1.07143,1.78571 -1.07143,1.78571 0,0 4.55357,-3.39286 7.41071,-3.34821 2.85715,0.0446 2.85715,0.0446 2.85715,0.0446 0,0 -3.48215,-0.0893 -5.3125,1.25 -1.83036,1.33928 -2.41072,2.09821 -2.41072,2.09821 0,0 3.79465,-2.00893 6.20536,-1.78571 2.41071,0.22321 2.45536,0.26786 2.45536,0.26786 0,0 -2.41072,0.22321 -4.15179,0.84821 -1.74107,0.625 -2.27678,0.80357 -2.27678,0.80357 0,0 4.15178,-1.07143 6.5625,0.40179 2.41071,1.47321 2.5,1.38393 2.5,1.38393 0,0 -2.94643,-1.25 -5.26786,-1.02679 -2.32143,0.22321 -2.36607,0.22321 -2.36607,0.22321 0,0 -4.24107,-1.78571 -6.875,-1.16071 -2.63393,0.625 -2.76786,0.66964 -2.76786,0.66964 z"
       id="path4168"
       inkscape:connector-curvature="0" />
    <path
       inkscape:connector-curvature="0"
       id="path4170"
       d="m 332.81251,379.63899 c 0,0 -1.25,-2.41071 -2.76786,-3.79464 -1.51785,-1.38393 -1.51785,-1.38393 -1.51785,-1.38393 0,0 1.78571,1.83036 2.1875,3.125 0.40178,1.29464 0.66964,1.83036 0.66964,1.83036 0,0 -1.69643,-2.99107 -4.19643,-3.79464 -2.5,-0.80358 -2.5,-0.80358 -2.5,-0.80358 0,0 2.85714,1.20536 3.61607,2.36608 0.75893,1.16071 1.07143,1.78571 1.07143,1.78571 0,0 -4.55357,-3.39286 -7.41071,-3.34821 -2.85715,0.0446 -2.85715,0.0446 -2.85715,0.0446 0,0 3.48215,-0.0893 5.3125,1.25 1.83036,1.33928 2.41072,2.09821 2.41072,2.09821 0,0 -3.79465,-2.00893 -6.20536,-1.78571 -2.41071,0.22321 -2.45536,0.26786 -2.45536,0.26786 0,0 2.41072,0.22321 4.15179,0.84821 1.74107,0.625 2.27678,0.80357 2.27678,0.80357 0,0 -4.15178,-1.07143 -6.5625,0.40179 -2.41071,1.47321 -2.5,1.38393 -2.5,1.38393 0,0 2.94643,-1.25 5.26786,-1.02679 2.32143,0.22321 2.36607,0.22321 2.36607,0.22321 0,0 4.24107,-1.78571 6.875,-1.16071 2.63393,0.625 2.76786,0.66964 2.76786,0.66964 z"
       style="fill:#000000;fill-opacity:1;fill-rule:evenodd;stroke:none;stroke-width:1px;stroke-linecap:butt;stroke-linejoin:miter;stroke-opacity:1" />
  </g>
</svg>
