<?xml version="1.0" encoding="UTF-8" standalone="no"?>
<!-- Created with Inkscape (http://www.inkscape.org/) -->

<svg
   xmlns:dc="http://purl.org/dc/elements/1.1/"
   xmlns:cc="http://creativecommons.org/ns#"
   xmlns:rdf="http://www.w3.org/1999/02/22-rdf-syntax-ns#"
   xmlns:svg="http://www.w3.org/2000/svg"
   xmlns="http://www.w3.org/2000/svg"
   xmlns:sodipodi="http://sodipodi.sourceforge.net/DTD/sodipodi-0.dtd"
   xmlns:inkscape="http://www.inkscape.org/namespaces/inkscape"
   width="210mm"
   height="297mm"
   viewBox="0 0 744.09448819 1052.3622047"
   id="svg2"
   version="1.1"
   inkscape:version="0.91 r13725"
   sodipodi:docname="fox.svg">
  <defs
     id="defs4" />
  <sodipodi:namedview
     id="base"
     pagecolor="#ffffff"
     bordercolor="#666666"
     borderopacity="1.0"
     inkscape:pageopacity="0.0"
     inkscape:pageshadow="2"
     inkscape:zoom="0.98994949"
     inkscape:cx="344.84727"
     inkscape:cy="509.5044"
     inkscape:document-units="px"
     inkscape:current-layer="layer1"
     showgrid="false"
     inkscape:window-width="1280"
     inkscape:window-height="698"
     inkscape:window-x="0"
     inkscape:window-y="1"
     inkscape:window-maximized="1" />
  <metadata
     id="metadata7">
    <rdf:RDF>
      <cc:Work
         rdf:about="">
        <dc:format>image/svg+xml</dc:format>
        <dc:type
           rdf:resource="http://purl.org/dc/dcmitype/StillImage" />
        <dc:title></dc:title>
      </cc:Work>
    </rdf:RDF>
  </metadata>
  <g
     inkscape:label="Layer 1"
     inkscape:groupmode="layer"
     id="layer1">
    <rect
       style="opacity:1;fill:#263238;fill-opacity:1;stroke:none;stroke-opacity:1"
       id="rect4280"
       width="345.71429"
       height="345.71429"
       x="158.57143"
       y="365.21936"
       ry="57.857151" />
    <g
       id="g4266"
       transform="translate(-80.714981,21.380318)">
      <path
         id="path4211"
         d="m 412.14258,469.12695 0,122.48047 10.35937,0 70.71485,-122.48047 -81.07422,0 z m 34.72461,25.88282 a 5.4295697,5.4295697 0 0 1 2.92187,0.86328 2.399112,2.399112 0 0 1 1.86328,2.07226 2.399112,2.399112 0 0 0 -0.008,-0.0742 5.4295697,5.4295697 0 0 1 0.65039,2.56836 5.4295697,5.4295697 0 0 1 -5.42773,5.42969 5.4295697,5.4295697 0 0 1 -5.42969,-5.42969 5.4295697,5.4295697 0 0 1 5.42969,-5.42968 z m 4.79883,3.07421 a 2.399112,2.399112 0 0 1 0.004,0.12891 2.399112,2.399112 0 0 0 -0.004,-0.12891 z"
         style="opacity:1;fill:#f4511e;fill-opacity:1;stroke:none;stroke-opacity:1"
         inkscape:connector-curvature="0" />
      <path
         id="path4213"
         d="m 331.07031,469.12695 70.71289,122.48047 10.35938,0 0,-122.48047 -81.07227,0 z m 51.51172,25.88282 a 5.4295697,5.4295697 0 0 1 2.92188,0.86328 2.399112,2.399112 0 0 1 1.86132,2.05468 2.399112,2.399112 0 0 0 -0.006,-0.0566 5.4295697,5.4295697 0 0 1 0.65039,2.56836 5.4295697,5.4295697 0 0 1 -5.42774,5.42969 5.4295697,5.4295697 0 0 1 -5.42969,-5.42969 5.4295697,5.4295697 0 0 1 5.42969,-5.42968 z"
         style="opacity:1;fill:#d84315;fill-opacity:1;stroke:none;stroke-opacity:1"
         inkscape:connector-curvature="0" />
      <path
         style="opacity:1;fill:#424242;fill-opacity:1;stroke:none;stroke-opacity:1"
         inkscape:transform-center-y="2.9903077"
         d="m 412.14286,609.54863 -10.35872,-17.94183 10.35872,0"
         id="path4219"
         inkscape:connector-curvature="0"
         sodipodi:nodetypes="ccc" />
      <path
         sodipodi:nodetypes="ccc"
         inkscape:connector-curvature="0"
         id="path4221"
         d="m 412.14258,609.54863 10.35872,-17.94183 -10.35872,0"
         inkscape:transform-center-y="2.9903077"
         style="opacity:1;fill:#616161;fill-opacity:1;stroke:none;stroke-opacity:1" />
      <path
         id="path4229"
         d="m 357.21484,423.84375 -26.14453,45.2832 52.28907,0 -26.14454,-45.2832 z m 0,10.72266 16.85743,29.19921 -33.7168,0 16.85937,-29.19921 z"
         style="opacity:1;fill:#d84315;fill-opacity:1;stroke:none;stroke-opacity:1"
         inkscape:connector-curvature="0" />
      <path
         id="path4231"
         d="m 467.07227,423.84375 -26.14454,45.2832 52.28907,0 -26.14453,-45.2832 z m 0,10.72266 16.85937,29.19921 -33.7168,0 16.85743,-29.19921 z"
         style="opacity:1;fill:#f4511e;fill-opacity:1;stroke:none;stroke-opacity:1"
         inkscape:connector-curvature="0" />
      <path
         sodipodi:type="star"
         style="opacity:1;fill:#e0e0e0;fill-opacity:1;stroke:none;stroke-opacity:1"
         id="path4233"
         sodipodi:sides="3"
         sodipodi:cx="357.21442"
         sodipodi:cy="454.03265"
         sodipodi:r1="19.466389"
         sodipodi:r2="9.7331944"
         sodipodi:arg1="0.52359878"
         sodipodi:arg2="1.5707963"
         inkscape:flatsided="true"
         inkscape:rounded="0"
         inkscape:randomized="0"
         d="m 374.0728,463.76585 -33.71677,0 16.85839,-29.19958 z"
         inkscape:transform-center-y="-4.8665971" />
      <path
         inkscape:transform-center-y="-4.8665971"
         d="m 483.93108,463.76585 -33.71677,0 16.85838,-29.19958 z"
         inkscape:randomized="0"
         inkscape:rounded="0"
         inkscape:flatsided="true"
         sodipodi:arg2="1.5707963"
         sodipodi:arg1="0.52359878"
         sodipodi:r2="9.7331944"
         sodipodi:r1="19.466389"
         sodipodi:cy="454.03265"
         sodipodi:cx="467.07269"
         sodipodi:sides="3"
         id="path4235"
         style="opacity:1;fill:#e0e0e0;fill-opacity:1;stroke:none;stroke-opacity:1"
         sodipodi:type="star" />
      <path
         id="path4243"
         d="m 446.86719,495.00977 a 5.4295697,5.4295697 0 0 0 -5.42969,5.42968 5.4295697,5.4295697 0 0 0 5.42969,5.42969 5.4295697,5.4295697 0 0 0 5.42773,-5.42969 5.4295697,5.4295697 0 0 0 -0.65039,-2.56836 2.399112,2.399112 0 0 1 0.0254,0.3418 2.399112,2.399112 0 0 1 -2.39844,2.40039 2.399112,2.399112 0 0 1 -2.39843,-2.40039 2.399112,2.399112 0 0 1 2.39843,-2.39844 2.399112,2.399112 0 0 1 0.51758,0.0586 5.4295697,5.4295697 0 0 0 -2.92187,-0.86328 z"
         style="opacity:1;fill:#424242;fill-opacity:1;stroke:none;stroke-opacity:1"
         inkscape:connector-curvature="0" />
      <circle
         style="opacity:1;fill:#fafafa;fill-opacity:1;stroke:none;stroke-opacity:1"
         id="circle4245"
         cx="449.2717"
         cy="498.2132"
         r="2.399112" />
      <path
         inkscape:connector-curvature="0"
         style="opacity:1;fill:#424242;fill-opacity:1;stroke:none;stroke-opacity:1"
         d="m 382.58148,495.00977 a 5.4295697,5.4295697 0 0 0 -5.42969,5.42968 5.4295697,5.4295697 0 0 0 5.42969,5.42969 5.4295697,5.4295697 0 0 0 5.42773,-5.42969 5.4295697,5.4295697 0 0 0 -0.65039,-2.56836 2.399112,2.399112 0 0 1 0.0254,0.3418 2.399112,2.399112 0 0 1 -2.39844,2.40039 2.399112,2.399112 0 0 1 -2.39843,-2.40039 2.399112,2.399112 0 0 1 2.39843,-2.39844 2.399112,2.399112 0 0 1 0.51758,0.0586 5.4295697,5.4295697 0 0 0 -2.92187,-0.86328 z"
         id="path4253" />
      <circle
         r="2.399112"
         cy="498.2132"
         cx="384.98599"
         id="circle4255"
         style="opacity:1;fill:#fafafa;fill-opacity:1;stroke:none;stroke-opacity:1" />
    </g>
  </g>
</svg>
